\relax 
\providecommand\hyper@newdestlabel[2]{}
\providecommand\HyperFirstAtBeginDocument{\AtBeginDocument}
\HyperFirstAtBeginDocument{\ifx\hyper@anchor\@undefined
\global\let\oldcontentsline\contentsline
\gdef\contentsline#1#2#3#4{\oldcontentsline{#1}{#2}{#3}}
\global\let\oldnewlabel\newlabel
\gdef\newlabel#1#2{\newlabelxx{#1}#2}
\gdef\newlabelxx#1#2#3#4#5#6{\oldnewlabel{#1}{{#2}{#3}}}
\AtEndDocument{\ifx\hyper@anchor\@undefined
\let\contentsline\oldcontentsline
\let\newlabel\oldnewlabel
\fi}
\fi}
\global\let\hyper@last\relax 
\gdef\HyperFirstAtBeginDocument#1{#1}
\providecommand\HyField@AuxAddToFields[1]{}
\providecommand\HyField@AuxAddToCoFields[2]{}
\babel@aux{english}{}
\@writefile{nav}{\headcommand {\slideentry {0}{0}{1}{1/1}{}{0}}}
\@writefile{nav}{\headcommand {\beamer@framepages {1}{1}}}
\@writefile{nav}{\headcommand {\slideentry {0}{0}{2}{2/2}{}{0}}}
\@writefile{nav}{\headcommand {\beamer@framepages {2}{2}}}
\citation{Stawarczyk_Jahn_Becker_Fischer_Hammerle_2008}
\citation{Stawarczyk_Ozcan_Roos_Trottmann_Sailer_Hammerle_2011}
\citation{Stawarczyk_Ozcan_Hallmann_Roos_Trottmann_Hammerle_2012}
\citation{StawarczykJahn_Becker_Hammerle_2008}
\@writefile{nav}{\headcommand {\slideentry {0}{0}{3}{3/3}{}{0}}}
\@writefile{nav}{\headcommand {\beamer@framepages {3}{3}}}
\@writefile{nav}{\headcommand {\slideentry {0}{0}{4}{4/4}{}{0}}}
\@writefile{nav}{\headcommand {\beamer@framepages {4}{4}}}
\@writefile{nav}{\headcommand {\slideentry {0}{0}{5}{5/5}{}{0}}}
\@writefile{nav}{\headcommand {\beamer@framepages {5}{5}}}
\@writefile{nav}{\headcommand {\slideentry {0}{0}{6}{6/6}{}{0}}}
\@writefile{nav}{\headcommand {\beamer@framepages {6}{6}}}
\citation{Pocock_1976}
\@writefile{nav}{\headcommand {\slideentry {0}{0}{7}{7/7}{}{0}}}
\@writefile{nav}{\headcommand {\beamer@framepages {7}{7}}}
\@writefile{nav}{\headcommand {\slideentry {0}{0}{8}{8/8}{}{0}}}
\@writefile{nav}{\headcommand {\beamer@framepages {8}{8}}}
\citation{Spiegelhalter_Abrams_Myles_2003}
\@writefile{nav}{\headcommand {\slideentry {0}{0}{9}{9/9}{}{0}}}
\@writefile{nav}{\headcommand {\beamer@framepages {9}{9}}}
\@writefile{snm}{\beamer@slide {eq:metirrpred}{10}}
\newlabel{eq:metirrpred}{{10}{10}{}{Doc-Start}{}}
\@writefile{nav}{\headcommand {\slideentry {0}{0}{10}{10/10}{}{0}}}
\@writefile{nav}{\headcommand {\beamer@framepages {10}{10}}}
\@writefile{nav}{\headcommand {\slideentry {0}{0}{11}{11/11}{}{0}}}
\@writefile{nav}{\headcommand {\beamer@framepages {11}{11}}}
\@writefile{nav}{\headcommand {\slideentry {0}{0}{12}{12/12}{}{0}}}
\@writefile{nav}{\headcommand {\beamer@framepages {12}{12}}}
\citation{Rover_2020}
\@writefile{nav}{\headcommand {\slideentry {0}{0}{13}{13/13}{}{0}}}
\@writefile{nav}{\headcommand {\beamer@framepages {13}{13}}}
\@writefile{nav}{\headcommand {\slideentry {0}{0}{14}{14/14}{}{0}}}
\@writefile{nav}{\headcommand {\beamer@framepages {14}{14}}}
\@writefile{nav}{\headcommand {\slideentry {0}{0}{15}{15/15}{}{0}}}
\@writefile{nav}{\headcommand {\beamer@framepages {15}{15}}}
\@writefile{snm}{\beamer@slide {eq:metpoolpost}{16}}
\newlabel{eq:metpoolpost}{{16}{16}{}{Doc-Start}{}}
\@writefile{snm}{\beamer@slide {eq:metpoolpred}{16}}
\newlabel{eq:metpoolpred}{{16}{16}{}{Doc-Start}{}}
\@writefile{nav}{\headcommand {\slideentry {0}{0}{16}{16/16}{}{0}}}
\@writefile{nav}{\headcommand {\beamer@framepages {16}{16}}}
\@writefile{nav}{\headcommand {\slideentry {0}{0}{17}{17/17}{}{0}}}
\@writefile{nav}{\headcommand {\beamer@framepages {17}{17}}}
\@writefile{nav}{\headcommand {\slideentry {0}{0}{18}{18/18}{}{0}}}
\@writefile{nav}{\headcommand {\beamer@framepages {18}{18}}}
\@writefile{nav}{\headcommand {\slideentry {0}{0}{19}{19/19}{}{0}}}
\@writefile{nav}{\headcommand {\beamer@framepages {19}{19}}}
\@writefile{nav}{\headcommand {\slideentry {0}{0}{20}{20/20}{}{0}}}
\@writefile{nav}{\headcommand {\beamer@framepages {20}{20}}}
\@writefile{nav}{\headcommand {\slideentry {0}{0}{21}{21/21}{}{0}}}
\@writefile{nav}{\headcommand {\beamer@framepages {21}{21}}}
\bibstyle{apalike}
\bibdata{reference}
\bibcite{Pocock_1976}{{1}{1976}{{Pocock}}{{}}}
\bibcite{Rover_2020}{{2}{2020}{{R\"{o}ver}}{{}}}
\bibcite{Spiegelhalter_Abrams_Myles_2003}{{3}{2003}{{Spiegelhalter et~al.}}{{}}}
\bibcite{Stawarczyk_Jahn_Becker_Fischer_Hammerle_2008}{{4}{2008a}{{Stawarczyk et~al.}}{{}}}
\bibcite{StawarczykJahn_Becker_Hammerle_2008}{{5}{2008b}{{Stawarczyk et~al.}}{{}}}
\bibcite{Stawarczyk_Ozcan_Hallmann_Roos_Trottmann_Hammerle_2012}{{6}{2012}{{Stawarczyk et~al.}}{{}}}
\bibcite{Stawarczyk_Ozcan_Roos_Trottmann_Sailer_Hammerle_2011}{{7}{2011}{{Stawarczyk et~al.}}{{}}}
\@writefile{nav}{\headcommand {\beamer@sectionpages {1}{21}}}
\@writefile{nav}{\headcommand {\beamer@subsectionpages {1}{21}}}
\@writefile{nav}{\headcommand {\sectionentry {1}{References}{22}{References}{0}}}
\@writefile{nav}{\headcommand {\slideentry {1}{0}{0}{22/22}{}{0}}}
\@writefile{nav}{\headcommand {\beamer@framepages {22}{22}}}
\@writefile{nav}{\headcommand {\slideentry {1}{0}{1}{23/23}{}{0}}}
\@writefile{nav}{\headcommand {\beamer@framepages {23}{23}}}
\@writefile{nav}{\headcommand {\beamer@partpages {1}{23}}}
\@writefile{nav}{\headcommand {\beamer@subsectionpages {1}{23}}}
\@writefile{nav}{\headcommand {\beamer@sectionpages {1}{23}}}
\@writefile{nav}{\headcommand {\beamer@documentpages {23}}}
\@writefile{nav}{\headcommand {\gdef \inserttotalframenumber {23}}}
