\begin{tikzpicture}
	\begin{pgfonlayer}{nodelayer}
		\node [style=rectangle] (0) at (-5, 8) {};
		\node [style=rectangle] (5) at (-5, 8) {$y_{11}, \dots , y_{n_11}$};
		\node [style=point] (6) at (-5, 6) {};
		\node [style=point] (7) at (-5, 5) {};
		\node [style=point] (8) at (-5, 4) {};
		\node [style=rectangle] (10) at (-5, 2) {$y_{1H}, \dots, y_{n_HH}$};
		\node [style=circle] (12) at (0, 2) {$\theta_H$};
		\node [style=point] (13) at (0, 6) {};
		\node [style=point] (15) at (0, 4) {};
		\node [style=point] (16) at (0, 5) {};
		\node [style=circle] (17) at (0, 8) {$\theta_1$};
	\end{pgfonlayer}
	\begin{pgfonlayer}{edgelayer}
		\draw [style=arrow left] (5) to (17);
		\draw [style=arrow left] (10) to (12);
	\end{pgfonlayer}
\end{tikzpicture}
